%YAML 1.1
%TAG !u! tag:unity3d.com,2011:
--- !u!114 &11400000
MonoBehaviour:
  m_ObjectHideFlags: 0
  m_CorrespondingSourceObject: {fileID: 0}
  m_PrefabInstance: {fileID: 0}
  m_PrefabAsset: {fileID: 0}
  m_GameObject: {fileID: 0}
  m_Enabled: 1
  m_EditorHideFlags: 0
  m_Script: {fileID: 11500000, guid: daa534b2892274c3dac5f4a528efa87b, type: 3}
  m_Name: Clubs_10
  m_EditorClassIdentifier: 
  cardType: 4
  cardValue: 10
  cardSprite: {fileID: 21300000, guid: 9f836ef7ba6ac413f936963be3a700df, type: 3}
