%YAML 1.1
%TAG !u! tag:unity3d.com,2011:
--- !u!114 &11400000
MonoBehaviour:
  m_ObjectHideFlags: 0
  m_CorrespondingSourceObject: {fileID: 0}
  m_PrefabInstance: {fileID: 0}
  m_PrefabAsset: {fileID: 0}
  m_GameObject: {fileID: 0}
  m_Enabled: 1
  m_EditorHideFlags: 0
  m_Script: {fileID: 11500000, guid: daa534b2892274c3dac5f4a528efa87b, type: 3}
  m_Name: Diamond_Queen
  m_EditorClassIdentifier: 
  cardType: 2
  cardValue: 12
  cardSprite: {fileID: 21300000, guid: 169353af7135449b3b5c34592d1f148f, type: 3}
